…
As can be seen in the histogram, there are a few very high values, so we
want to see if these are errors in our dataset. Therefore we are going
to list the **emp_title** and **verification_status** for the top 50
values.

``` r
select(head(creditData[order(creditData$annual_inc, decreasing = TRUE), ], 50), annual_inc, emp_title, verification_status)
```

    ## # A tibble: 50 × 3
    ##    annual_inc emp_title                           verification_status
    ##         <dbl> <chr>                               <chr>              
    ##  1    9500000 reg nurse                           Source Verified    
    ##  2    9000000 registered nurse                    Source Verified    
    ##  3    8900060 commercial driver                   Source Verified    
    ##  4    8706582 Correctional Sgt.                   Source Verified    
    ##  5    8700000 Customer Representative             Source Verified    
    ##  6    8500021 Senior Field Operator               Source Verified    
    ##  7    8253000 Sr Mgr                              Source Verified    
    ##  8    8121180 Facilities Operations Manager       Source Verified    
    ##  9    7600000 Interim Director of Case Management Source Verified    
    ## 10    7500000 Sales & service rep                 Verified           
    ## # ℹ 40 more rows
…
    ## [1] "character"

Gwen: Create for every categorical value a boxsplot to see a shift. Or
use scatter plot.

Remove the blanks

``` r
creditDataProcessed <- creditDataProcessed[!is.na(creditDataProcessed$last_credit_pull_d), ]
creditDataProcessed
```

    ## # A tibble: 798,136 × 29
    ##    loan_amnt funded_amnt funded_amnt_inv int_rate emp_length home_ownership
    ##        <dbl>       <dbl>           <dbl>    <dbl> <chr>      <chr>         
    ##  1      2000        2000            1275     7.12 7 years    MORTGAGE      
    ##  2     18000       18000           18000     8.9  1 year     MORTGAGE      
    ##  3      5000        5000            5000     7.49 1 year     MORTGAGE      
    ##  4      7000        7000            7000     6.49 10+ years  MORTGAGE      
    ##  5     15000       15000           15000     6.49 10+ years  MORTGAGE      
    ##  6     14500       14500           14500     7.62 10+ years  MORTGAGE      
    ##  7      8400        8400            8400     7.69 10+ years  MORTGAGE      
    ##  8     24000       24000           24000     8.9  10+ years  MORTGAGE      
    ##  9     11000       11000           11000     6.03 10+ years  MORTGAGE      
    ## 10      6000        6000            6000     7.9  10+ years  MORTGAGE      
    ## # ℹ 798,126 more rows
    ## # ℹ 23 more variables: annual_inc <dbl>, verification_status <chr>,
    ## #   purpose <chr>, title <chr>, zip_code <chr>, addr_state <chr>, dti <dbl>,
    ## #   delinq_2yrs <dbl>, earliest_cr_line <chr>, inq_last_6mths <dbl>,
    ## #   open_acc <dbl>, pub_rec <dbl>, revol_bal <dbl>, revol_util <dbl>,
    ## #   total_acc <dbl>, initial_list_status <chr>, last_credit_pull_d <chr>,
    ## #   collections_12_mths_ex_med <dbl>, application_type <chr>, …
…
