Assignment 1
…
As can be seen in the histogram, there are a few very high values, so
we want to see if these are errors in our dataset. Therefore we are
going to list the emp_title and
verification_status for the top 50 values.

select(head(creditData[order(creditData$annual_inc, decreasing = TRUE), ], 50), annual_inc, emp_title, verification_status)

## # A tibble: 50 × 3
##    annual_inc emp_title                           verification_status
##         <dbl> <chr>                               <chr>              
##  1    9500000 reg nurse                           Source Verified    
##  2    9000000 registered nurse                    Source Verified    
##  3    8900060 commercial driver                   Source Verified    
##  4    8706582 Correctional Sgt.                   Source Verified    
##  5    8700000 Customer Representative             Source Verified    
##  6    8500021 Senior Field Operator               Source Verified    
##  7    8253000 Sr Mgr                              Source Verified    
##  8    8121180 Facilities Operations Manager       Source Verified    
##  9    7600000 Interim Director of Case Management Source Verified    
## 10    7500000 Sales & service rep                 Verified           
## # ℹ 40 more rows
…
## [1] "character"

Factorize the attribute last_credit_pull_d

vec_last_credit_pull_d <- as.factor(creditData$last_credit_pull_d)
class(vec_last_credit_pull_d)

## [1] "factor"

Remove the blanks

creditData <- creditData[!is.na(creditData$last_credit_pull_d), ]
creditData

## # A tibble: 798,592 × 72
##          id member_id loan_amnt funded_amnt funded_amnt_inv term      int_rate
##       <dbl>     <dbl>     <dbl>       <dbl>           <dbl> <chr>        <dbl>
##  1    83489     83471      2600        2600             575 36 months     8.38
##  2    77792     77764      3000        3000             125 36 months     9.01
##  3    72176     70868      2525        2525             225 36 months     9.33
##  4    72819     72816      7200        5075             350 36 months    10.3 
##  5    89258     80039      2000        2000            1275 36 months     7.12
##  6  5764263   7196024     18000       18000           18000 36 months     8.9 
##  7   837813   1047868      5000        5000            5000 36 months     7.49
##  8 30585515  33138680      7000        7000            7000 36 months     6.49
##  9 29854965  32388141     15000       15000           15000 36 months     6.49
## 10  7699829   9401375     14500       14500           14500 36 months     7.62
## # ℹ 798,582 more rows
## # ℹ 65 more variables: installment <dbl>, emp_title <chr>, emp_length <chr>,
## #   home_ownership <chr>, annual_inc <dbl>, verification_status <chr>,
## #   issue_d <chr>, loan_status <chr>, pymnt_plan <chr>, url <chr>, desc <chr>,
## #   purpose <chr>, title <chr>, zip_code <chr>, addr_state <fct>, dti <dbl>,
## #   delinq_2yrs <dbl>, earliest_cr_line <chr>, inq_last_6mths <dbl>,
## #   mths_since_last_delinq <dbl>, mths_since_last_record <dbl>, …
…
