…
As can be seen in the histogram, there are a few very high values, so we
want to see if these are errors in our dataset. Therefore we are going
to list the **emp_title** and **verification_status** for the top 50
values.

``` r
select(head(creditData[order(creditData$annual_inc, decreasing = TRUE), ], 50), annual_inc, emp_title, verification_status)
```

    ## # A tibble: 50 × 3
    ##    annual_inc emp_title                           verification_status
    ##         <dbl> <chr>                               <chr>              
    ##  1    9500000 reg nurse                           Source Verified    
    ##  2    9000000 registered nurse                    Source Verified    
    ##  3    8900060 commercial driver                   Source Verified    
    ##  4    8706582 Correctional Sgt.                   Source Verified    
    ##  5    8700000 Customer Representative             Source Verified    
    ##  6    8500021 Senior Field Operator               Source Verified    
    ##  7    8253000 Sr Mgr                              Source Verified    
    ##  8    8121180 Facilities Operations Manager       Source Verified    
    ##  9    7600000 Interim Director of Case Management Source Verified    
    ## 10    7500000 Sales & service rep                 Verified           
    ## # ℹ 40 more rows
…
